<?xml version="1.0" encoding="utf-8"?>
<!-- Generator: Adobe Illustrator 22.0.1, SVG Export Plug-In . SVG Version: 6.00 Build 0)  -->
<svg version="1.1" id="Calque_1" xmlns="http://www.w3.org/2000/svg" xmlns:xlink="http://www.w3.org/1999/xlink" x="0px" y="0px"
	 viewBox="0 0 80 80" style="enable-background:new 0 0 80 80;" xml:space="preserve">
<title>ICONE/DARK GRIS/CADENAS</title>
<desc>Created with Sketch.</desc>
<g id="ICONE_x2F_DARK-GRIS_x2F_CADENAS">
	<path d="M40,79.5C18.2,79.5,0.5,61.8,0.5,40S18.2,0.5,40,0.5S79.5,18.2,79.5,40S61.8,79.5,40,79.5z M40,1.5
		C18.8,1.5,1.5,18.8,1.5,40c0,21.2,17.3,38.5,38.5,38.5c21.2,0,38.5-17.3,38.5-38.5C78.5,18.8,61.2,1.5,40,1.5z"/>
	<path d="M27,38.6c-0.3,0-0.5-0.2-0.5-0.5v-8.5c0-7.2,5.9-13,13-13s13,5.9,13,13v8.3c0,0.3-0.2,0.5-0.5,0.5s-0.5-0.2-0.5-0.5v-8.3
		c0-6.6-5.4-12-12-12s-12,5.4-12,12v8.5C27.5,38.3,27.3,38.6,27,38.6z"/>
	<path d="M40.5,63.7c-9.9,0-18-8.1-18-18V38c0-0.3,0.2-0.5,0.5-0.5h35c0.3,0,0.5,0.2,0.5,0.5v7.7C58.5,55.6,50.4,63.7,40.5,63.7z
		 M23.5,38.5v7.2c0,9.4,7.6,17,17,17s17-7.6,17-17v-7.2H23.5z"/>
	<path d="M40.6,54.1h-0.9c-1.8,0-3.2-1.4-3.2-3.2v-5.2c0-1.8,1.4-3.2,3.2-3.2h0.9c1.8,0,3.2,1.4,3.2,3.2v5.2
		C43.8,52.7,42.3,54.1,40.6,54.1z M39.7,43.5c-1.2,0-2.2,1-2.2,2.2v5.2c0,1.2,1,2.2,2.2,2.2h0.9c1.2,0,2.2-1,2.2-2.2v-5.2
		c0-1.2-1-2.2-2.2-2.2H39.7z"/>
</g>
</svg>
