<?xml version="1.0" encoding="utf-8"?>
<!-- Generator: Adobe Illustrator 22.0.1, SVG Export Plug-In . SVG Version: 6.00 Build 0)  -->
<svg version="1.1" id="Calque_1" xmlns="http://www.w3.org/2000/svg" xmlns:xlink="http://www.w3.org/1999/xlink" x="0px" y="0px"
	 viewBox="0 0 81 81" style="enable-background:new 0 0 81 81;" xml:space="preserve">
<title>ICONE/BLANC/YOUTUBE</title>
<desc>Created with Sketch.</desc>
<g>
	<polygon points="35.8,33.6 35.8,37 35.8,48.2 47.8,41 41.2,36.9 	"/>
	<path d="M40.5,0.5c-22.1,0-40,17.9-40,40c0,22.1,17.9,40,40,40s40-17.9,40-40C80.5,18.4,62.6,0.5,40.5,0.5z M63.8,39.7v3.1
		c0,4.1-0.5,8.1-0.5,8.1s-0.4,3.5-1.8,5c-1.8,2-3.7,2-4.6,2.1c-6.4,0.5-16.1,0.5-16.1,0.5s-12-0.1-15.6-0.5c-1-0.2-3.3-0.1-5.1-2.1
		c-1.4-1.5-1.8-5-1.8-5s-0.5-4.1-0.5-8.1v-3.3V39c0-4.1,0.5-8.1,0.5-8.1s0.4-3.5,1.8-5c1.8-2,3.7-2,4.6-2.1
		c6.4-0.5,16.1-0.5,16.1-0.5h0c0,0,9.7,0,16.1,0.5c0.9,0.1,2.9,0.1,4.6,2.1c1.4,1.5,1.8,5,1.8,5s0.5,4.1,0.5,8.1V39.7z"/>
</g>
</svg>
